%YAML 1.1
%TAG !u! tag:unity3d.com,2011:
--- !u!1045 &1
EditorBuildSettings:
  m_ObjectHideFlags: 0
  serializedVersion: 2
  m_Scenes:
  - enabled: 0
    path: 
    guid: 00000000000000000000000000000000
  - enabled: 1
    path: Assets/Scenes/Game.unity
    guid: 45bd1c08908dc104cbef768098ff7b2c
  - enabled: 1
    path: Assets/Scenes/LoadingScene.unity
    guid: 116948b1a54f1394582f918ee6e021e2
  - enabled: 1
    path: Assets/Scenes/MainMenuScene.unity
    guid: b087d1aa0d19ff34c8f7b3eb5c726b8c
  m_configObjects: {}
